{
    "inputMessageMetadata": {
        "messagePayload": {
            "connectorName": "#_custom_mule_metadata_type_#",
            "typeId": "SF_Outbound"
        }
    },
    "outputMessageMetadata": {
        "messagePayload": {
            "connectorName": "#_custom_mule_metadata_type_#",
            "typeId": "query"
        }
    },
    "id": "06bdac14-b86c-48a9-9514-0024bafd1ab4",
    "version": "5.2.0.0"
}