{
    "inputMessageMetadata": {
        "messagePayload": {
            "connectorName": "Salesforce__Basic_Authentication",
            "typeId": "Contact"
        }
    },
    "outputMessageMetadata": {
        "messagePayload": {
            "connectorName": "#_custom_mule_metadata_type_#",
            "typeId": "ZFM_GO_DBM_BP_UPDATE"
        }
    },
    "id": "a561e06f-1dfa-40f0-83e3-0cccadf7954e",
    "version": "5.2.0.0"
}