{
    "inputMessageMetadata": {
        "messagePayload": {
            "connectorName": "#_custom_mule_metadata_type_#",
            "typeId": "SAP_BUSINESS_PARTNER"
        }
    },
    "outputMessageMetadata": {},
    "id": "2cacb56c-fff8-4b85-8447-9580ad4c31e0",
    "version": "5.2.0.0"
}