{
    "inputMessageMetadata": {
        "messagePayload": {
            "connectorName": "Salesforce__Basic_Authentication",
            "typeId": "Contact"
        },
        "inboundProperties": {
            "http.query.params": {
                "connectorName": "#_custom_mule_metadata_type_#",
                "typeId": "inboundProperties"
            }
        }
    },
    "outputMessageMetadata": {
        "messagePayload": {
            "connectorName": "#_custom_mule_metadata_type_#",
            "typeId": "ZFM_GO_DBM_BP_UPDATE"
        }
    },
    "id": "5e52e521-e438-4120-8e41-3d659961bbd8",
    "version": "5.2.0.0"
}