{
    "inputMessageMetadata": {
        "messagePayload": {
            "connectorName": "Salesforce__Basic_Authentication",
            "typeId": "Contact"
        }
    },
    "outputMessageMetadata": {
        "messagePayload": {
            "connectorName": "#_custom_mule_metadata_type_#",
            "typeId": "ZFM_GO_DBM_BP_UPDATE"
        }
    },
    "id": "edf290a0-947e-4cf4-b10d-1531d6fd3faa",
    "version": "5.2.0.0"
}